{
	"video_url": "https://www.azkaku.com/video.html",
	"widgets": [
		{
			"type": "widget_title_1",
			"layout": {
				"container_1": {
					"width": -1
				},
				"text_1": {
					"padding": "16:16:16:4",
					"text": "7000 Peserta Meriahkan Indonesia Menari 2019",
					"size": 30,
					"weight": "bold",
					"color": "#ffffff"
				}
			}
		},
		{
			"type": "widget_title_1",
			"layout": {
				"container_1": {
					"width": -1
				},
				"text_1": {
					"padding": "16:4:16:4",
					"text": "Senin, 4 November 2019 - 12:29",
					"color": "#888888"
				}
			}
		},
		{
			"type": "widget_title_1",
			"layout": {
				"container_1": {
					"width": -1
				},
				"text_1": {
					"padding": "16:4:16:8",
					"text": "7 Photo | Muhamad Solihin",
					"color": "#888888"
				}
			}
		},
		{
			"type": "widget_html_1",
			"layout": {
				"text_1": {
					"padding": "16:8:16:8",
					"color": "#cccccc",
					"text": "<p><b>VIVA</b> – Peserta mengikuti perhelatan \"Indonesia Menari 2019\" di Grand Indonesia, Jakarta, Minggu 17 November 2019. Sebanyak 7000 orang mengikuti perhelatan Indonesia Menari yang berlangsung di tujuh kota diantaranya Jakarta, Bandung, Solo, Semarang, Medan, Makassar, dan Palembang.</p>"
				}
			}
		},
		{
			"type": "widget_horizontal_wrap",
			"layout": {
				"container_1": {
					"margin": "8:8:8:8"
				}
			},
			"widgets": [
				{
					"type": "widget_title_1",
					"layout": {
						"container_1": {
							"padding": "8:8:8:8"
						},
						"text_1": {
							"text": "#indonesia menari",
							"size": 16,
							"weight": "bold",
							"color": "#cccccc"
						}
					},
					"action": {
						"id": "tag-1",
						"type": "listing",
						"api_url": "https://gitlab.com/siwathe9/vivanews-json/raw/master/listing1",
						"api_method": "get",
						"api_last_modify": 0,
						"toolbar": {
							"logo": {
								"gravity": "center_left",
								"margin": "10:10:10:10",
								"image": {
									"image_url": "https://media.vivanews.com/appasset/responsive/img/logo.png?v=3.63",
									"height": 35
								}
							},
							"height": 56,
							"bg_color": "#ffffff"
						}
					}
				},
				{
					"type": "widget_title_1",
					"layout": {
						"container_1": {
							"padding": "8:8:8:8"
						},
						"text_1": {
							"text": "#tari",
							"size": 16,
							"weight": "bold",
							"color": "#cccccc"
						}
					}
				}
			]
		},
		{
			"type": "widget_title_2",
			"layout": {
				"text_1": {
					"text": "SELANJUTNYA",
					"size": 24,
					"weight": "normal",
					"color": "#ffffff",
					"padding": "16:8:16:4"
				}
			}
		},
		{
			"type": "widget_preview_3",
			"layout": {
				"container_1": {
					"padding": "16:8:16:8"
				},
				"container_2": {
					"margin": "8:0:0:0"
				},
				"image_1": {
					"image_url": "https://thumb.vivanews.com/media/frontend/thumbs3/2019/09/18/5d81ac907ee2a-tunggal-putra-indonesia-shesar-hiren-rhustavito_665_374.jpg",
					"width": 100,
					"height": 70
				},
				"text_1": {
					"margin": "0:0:0:4",
					"text": "Shesar Akui Punya Taktik Jitu Singkirkan Jonatan Christie",
					"size": 16,
					"color": "#cccccc"
				},
				"text_3": {
					"text": "18-09-2019 | 13:49 WIB",
					"size": 12,
					"color": "#cccccc"
				},
				"separator": {
					"color": "#ffffff",
					"height": 1,
					"margin": "16:0:16:0"
				}
			}
		},
		{
			"type": "widget_preview_3",
			"layout": {
				"container_1": {
					"padding": "16:8:16:8"
				},
				"container_2": {
					"margin": "8:0:0:0"
				},
				"image_1": {
					"image_url": "https://thumb.vivanews.com/media/frontend/thumbs3/2018/10/22/5bcdb9b56e383-sejumlah-mobil-pickup-terparkir-di-halaman-pabrik-mobil-esemka-di-sambi-boyolal_665_374.jpg",
					"width": 100,
					"height": 70
				},
				"text_1": {
					"margin": "0:0:0:4",
					"text": "Alasan Komponen Lokal Esemka Cuma 62 Persen",
					"size": 16,
					"color": "#cccccc"
				},
				"text_3": {
					"text": "10-09-2019 | 11:39 WIB",
					"size": 12,
					"color": "#cccccc"
				},
				"separator": {
					"color": "#ffffff",
					"height": 1,
					"margin": "16:0:16:0"
				}
			}
		},
		{
			"type": "widget_preview_3",
			"layout": {
				"container_1": {
					"padding": "16:8:16:8"
				},
				"container_2": {
					"margin": "8:0:0:0"
				},
				"image_1": {
					"image_url": "https://thumb.vivanews.com/media/frontend/thumbs3/2019/09/16/5d7f3e878edf9-wapres-iran-dukung-forum-bisnis-kesehatan-ri-iran_665_374.jpg",
					"width": 100,
					"height": 70
				},
				"text_1": {
					"margin": "0:0:0:4",
					"text": "RI Gandeng Iran Garap Teknologi Obat Kanker",
					"size": 16,
					"color": "#cccccc"
				},
				"text_3": {
					"text": "16-09-2019 | 15:58 WIB",
					"size": 12,
					"color": "#cccccc"
				},
				"separator": {
					"color": "#ffffff",
					"height": 1,
					"margin": "16:0:16:0"
				}
			}
		},
		{
			"type": "widget_preview_3",
			"layout": {
				"container_1": {
					"padding": "16:8:16:8"
				},
				"container_2": {
					"margin": "8:0:0:0"
				},
				"image_1": {
					"image_url": "https://thumb.viva.co.id/media/frontend/thumbs3/2019/09/30/5d91989097598-salah-satu-pesawat-yang-dipakai-untuk-operasi-hujan-buatan_665_374.jpg",
					"width": 100,
					"height": 70
				},
				"text_1": {
					"margin": "0:0:0:4",
					"text": "Syukurlah, Area Karhutla Mulai Pulih, Hujan Buatan Dilanjutkan",
					"size": 16,
					"color": "#cccccc"
				},
				"text_3": {
					"text": "30-09-2019 | 13:09 WIB",
					"size": 12,
					"color": "#cccccc"
				},
				"separator": {
					"color": "#ffffff",
					"height": 1,
					"margin": "16:0:16:0"
				}
			}
		},
		{
			"type": "widget_title_2",
			"layout": {
				"text_1": {
					"text": "LIHAT JUGA",
					"size": 24,
					"weight": "normal",
					"color": "#ffffff",
					"padding": "16:24:16:4"
				}
			}
		},
		{
			"type": "widget_horizontal_page",
			"layout": {
				"container_1": {
					"aspect_ratio": "1:1",
					"margin": "0:4:0:0"
				},
				"indicator": {
					"color": "#ffffff",
					"color_active": "#888888",
					"gravity": "bottom",
					"padding": "16:16:16:16"
				}
			},
			"children_width": 1.0,
			"widgets": [
				{
					"type": "widget_preview_2",
					"layout": {
						"container_1": {
							"padding": "16:8:16:8"
						},
						"image_1": {
							"image_url": "https://thumb.viva.co.id/media/frontend/thumbs3/2019/11/19/5dd3a920b1c34-wisatawan-mancanegara_325_183.jpg",
							"aspect_ratio": "16:9"
						},
						"text_1": {
							"margin": "0:8:0:4",
							"text": "Kenaikan Wisatawan Mancanegara ke Indonesia",
							"size": 18,
							"weight": "bold",
							"color": "#cccccc",
							"max_lines": 2
						},
						"text_2": {
							"text": "News | 18-09-2019 14:23 WIB",
							"size": 12,
							"color": "#cccccc"
						}
					}
				},
				{
					"type": "widget_preview_2",
					"layout": {
						"container_1": {
							"padding": "16:8:16:8"
						},
						"image_1": {
							"image_url": "https://thumb.viva.co.id/media/frontend/thumbs3/2019/11/19/5dd3e0173cb8a-robot-pembersih-sampah-sungai_325_183.jpg",
							"aspect_ratio": "16:9"
						},
						"text_1": {
							"margin": "0:8:0:4",
							"text": "Ini Robot Pembersih Sungai yang Mampu Sedot 50.000 Kg Sampah",
							"size": 18,
							"weight": "bold",
							"color": "#cccccc",
							"max_lines": 2
						},
						"text_2": {
							"text": "News | 18-09-2019 14:23 WIB",
							"size": 12,
							"color": "#cccccc"
						}
					}
				},
				{
					"type": "widget_preview_2",
					"layout": {
						"container_1": {
							"padding": "16:8:16:8"
						},
						"image_1": {
							"image_url": "https://thumb.viva.co.id/media/frontend/thumbs3/2019/11/17/5dd0969410285-yacub-christ-vs-tarjuman_325_183.jpg",
							"aspect_ratio": "16:9"
						},
						"text_1": {
							"margin": "0:8:0:4",
							"text": "Baku Hantam Tanpa Henti, Yacub Christ Hantam Tarjuman",
							"size": 18,
							"weight": "bold",
							"color": "#cccccc",
							"max_lines": 2
						},
						"text_2": {
							"text": "Sport | 18-09-2019 14:23 WIB",
							"size": 12,
							"color": "#cccccc"
						}
					}
				},
				{
					"type": "widget_preview_2",
					"layout": {
						"container_1": {
							"padding": "16:8:16:8"
						},
						"image_1": {
							"image_url": "https://thumb.viva.co.id/media/frontend/thumbs3/2019/11/17/5dd097eccbfa3-alpris-vs-aziz-kurniawan_325_183.jpg",
							"aspect_ratio": "16:9"
						},
						"text_1": {
							"margin": "0:8:0:4",
							"text": "Hantam Keras Alpris Kanvaskan Aziz Kurniawan",
							"size": 18,
							"weight": "bold",
							"color": "#cccccc",
							"max_lines": 2
						},
						"text_2": {
							"text": "Sport | 18-09-2019 14:23 WIB",
							"size": 12,
							"color": "#cccccc"
						}
					}
				}
			]
		}
	]
}